# Blender v2.74 (sub 0) OBJ File: ''
# www.blender.org
mtllib billboard.mtl
o Cube
v 2.048001 0.553956 -0.657470
v 0.048001 0.553956 -0.657470
v 2.048001 0.553956 1.342530
v 0.048001 0.553956 1.342530
vt 0.000100 0.999900
vt 0.000100 0.000100
vt 0.999900 0.000100
vt 0.999900 0.999900
vn 0.000000 1.000000 0.000000
usemtl Material
s off
f 4/1/1 3/2/1 1/3/1 2/4/1
