# 3ds Max Wavefront OBJ Exporter v0.97b - (c)2007 guruware
# File Created: 21.06.2011 20:38:30

newmtl wire_115115115
	Ns 32
	d 1
	Tr 0
	Tf 1 1 1
	illum 2
	Ka 0.4510 0.4510 0.4510
	Kd 0.4510 0.4510 0.4510
	Ks 0.3500 0.3500 0.3500

newmtl DEMOUTH
	Ns 59.0000
	Ni 1.5000
	d 1.0000
	Tr 0.0000
	Tf 1.0000 1.0000 1.0000 
	illum 2
	Ka 0.0000 0.0000 0.0000
	Kd 0.7765 0.1059 0.1059
	Ks 0.9000 0.9000 0.9000
	Ke 0.0000 0.0000 0.0000
	map_Ka Tex__3_Mix.tga
	map_Kd Tex__3_Mix.tga
	map_bump -bm 0.2000 Tex__3_Mix.tga
	map_refl Tex__5_Falloff.tga

newmtl wire_229166215
	Ns 32
	d 1
	Tr 0
	Tf 1 1 1
	illum 2
	Ka 0.8980 0.6510 0.8431
	Kd 0.8980 0.6510 0.8431
	Ks 0.3500 0.3500 0.3500

newmtl wire_000000000
	Ns 32
	d 1
	Tr 0
	Tf 1 1 1
	illum 2
	Ka 0.0000 0.0000 0.0000
	Kd 0.0000 0.0000 0.0000
	Ks 0.3500 0.3500 0.3500
