# Blender v2.74 (sub 0) OBJ File: ''
# www.blender.org
mtllib base.mtl
o Cylinder02
v 0.000000 3.009120 0.000000
v 3.530545 3.009120 0.000000
v 3.317627 3.009120 -1.207518
v 2.704555 3.009120 -2.269391
v 1.765272 3.009120 -3.057542
v 0.613073 3.009120 -3.476908
v -0.613073 3.009120 -3.476908
v -1.765273 3.009120 -3.057542
v -2.704555 3.009120 -2.269391
v -3.317627 3.009120 -1.207518
v -3.530545 3.009120 -0.000001
v -3.317628 3.009120 1.207517
v -2.704555 3.009120 2.269390
v -1.765274 3.009120 3.057541
v -0.613074 3.009120 3.476908
v 0.613071 3.009120 3.476909
v 1.765271 3.009120 3.057543
v 2.704553 3.009120 2.269393
v 3.317627 3.009120 1.207520
v 3.530545 3.046345 0.000000
v 3.317627 3.046345 -1.207518
v 2.704555 3.046345 -2.269391
v 1.765272 3.046345 -3.057542
v 0.613073 3.046345 -3.476908
v -0.613073 3.046345 -3.476908
v -1.765273 3.046345 -3.057542
v -2.704555 3.046345 -2.269391
v -3.317627 3.046345 -1.207518
v -3.530545 3.046345 -0.000001
v -3.317628 3.046345 1.207517
v -2.704555 3.046345 2.269390
v -1.765274 3.046345 3.057541
v -0.613074 3.046345 3.476908
v 0.613071 3.046345 3.476909
v 1.765271 3.046345 3.057543
v 2.704553 3.046345 2.269393
v 3.317627 3.046345 1.207520
v 3.530545 3.083570 0.000000
v 3.317627 3.083570 -1.207518
v 2.704555 3.083570 -2.269391
v 1.765272 3.083570 -3.057542
v 0.613073 3.083570 -3.476908
v -0.613073 3.083570 -3.476908
v -1.765273 3.083570 -3.057542
v -2.704555 3.083570 -2.269391
v -3.317627 3.083570 -1.207518
v -3.530545 3.083570 -0.000001
v -3.317628 3.083570 1.207517
v -2.704555 3.083570 2.269390
v -1.765274 3.083570 3.057541
v -0.613074 3.083570 3.476908
v 0.613071 3.083570 3.476909
v 1.765271 3.083570 3.057543
v 2.704553 3.083570 2.269393
v 3.317627 3.083570 1.207520
v 3.530545 3.120795 0.000000
v 3.317627 3.120795 -1.207518
v 2.704555 3.120795 -2.269391
v 1.765272 3.120795 -3.057542
v 0.613073 3.120795 -3.476908
v -0.613073 3.120795 -3.476908
v -1.765273 3.120795 -3.057542
v -2.704555 3.120795 -2.269391
v -3.317627 3.120795 -1.207518
v -3.530545 3.120795 -0.000001
v -3.317628 3.120795 1.207517
v -2.704555 3.120795 2.269390
v -1.765274 3.120795 3.057541
v -0.613074 3.120795 3.476908
v 0.613071 3.120795 3.476909
v 1.765271 3.120795 3.057543
v 2.704553 3.120795 2.269393
v 3.317627 3.120795 1.207520
v 3.530545 3.158020 0.000000
v 3.317627 3.158020 -1.207518
v 2.704555 3.158020 -2.269391
v 1.765272 3.158020 -3.057542
v 0.613073 3.158020 -3.476908
v -0.613073 3.158020 -3.476908
v -1.765273 3.158020 -3.057542
v -2.704555 3.158020 -2.269391
v -3.317627 3.158020 -1.207518
v -3.530545 3.158020 -0.000001
v -3.317628 3.158020 1.207517
v -2.704555 3.158020 2.269390
v -1.765274 3.158020 3.057541
v -0.613074 3.158020 3.476908
v 0.613071 3.158020 3.476909
v 1.765271 3.158020 3.057543
v 2.704553 3.158020 2.269393
v 3.317627 3.158020 1.207520
v 3.530545 3.195246 0.000000
v 3.317627 3.195246 -1.207518
v 2.704555 3.195246 -2.269391
v 1.765272 3.195246 -3.057542
v 0.613073 3.195246 -3.476908
v -0.613073 3.195246 -3.476908
v -1.765273 3.195246 -3.057542
v -2.704555 3.195246 -2.269391
v -3.317627 3.195246 -1.207518
v -3.530545 3.195246 -0.000001
v -3.317628 3.195246 1.207517
v -2.704555 3.195246 2.269390
v -1.765274 3.195246 3.057541
v -0.613074 3.195246 3.476908
v 0.613071 3.195246 3.476909
v 1.765271 3.195246 3.057543
v 2.704553 3.195246 2.269393
v 3.317627 3.195246 1.207520
v 0.000000 3.195246 0.000000
v 0.613073 3.009120 -3.476908
v 0.613073 3.009120 -3.476908
v 0.613073 3.046345 -3.476908
v 0.613073 3.009120 -3.476908
v 0.613073 3.046345 -3.476908
v 0.613073 3.083570 -3.476908
v 0.613073 3.046345 -3.476908
v 0.613073 3.083570 -3.476908
v 0.613073 3.120795 -3.476908
v 0.613073 3.083570 -3.476908
v 0.613073 3.120795 -3.476908
v 0.613073 3.158020 -3.476908
v 0.613073 3.120795 -3.476908
v 0.613073 3.158020 -3.476908
v 0.613073 3.195246 -3.476908
v 0.613073 3.158020 -3.476908
v 0.613073 3.195246 -3.476908
vt 0.500000 0.000000
vt 0.805556 0.000000
vt 0.750000 0.000000
vt 0.861111 0.000000
vt 0.916667 0.000000
vt 0.972222 0.000000
vt 0.027778 0.000000
vt -0.027778 0.000000
vt 0.083333 0.000000
vt 0.138889 0.000000
vt 0.194444 0.000000
vt 0.250000 0.000000
vt 0.305556 0.000000
vt 0.361111 0.000000
vt 0.416667 0.000000
vt 0.472222 0.000000
vt 0.527778 0.000000
vt 0.583333 0.000000
vt 0.638889 0.000000
vt 0.694444 0.000000
vt 0.805556 0.200000
vt 0.750000 0.200000
vt 0.861111 0.200000
vt 0.916667 0.200000
vt 0.972222 0.200000
vt 0.027778 0.200000
vt -0.027778 0.200000
vt 0.083333 0.200000
vt 0.138889 0.200000
vt 0.194444 0.200000
vt 0.250000 0.200000
vt 0.305556 0.200000
vt 0.361111 0.200000
vt 0.416667 0.200000
vt 0.472222 0.200000
vt 0.527778 0.200000
vt 0.583333 0.200000
vt 0.638889 0.200000
vt 0.694444 0.200000
vt 0.805556 0.400000
vt 0.750000 0.400000
vt 0.861111 0.400000
vt 0.916667 0.400000
vt 0.972222 0.400000
vt 0.027778 0.400000
vt -0.027778 0.400000
vt 0.083333 0.400000
vt 0.138889 0.400000
vt 0.194444 0.400000
vt 0.250000 0.400000
vt 0.305556 0.400000
vt 0.361111 0.400000
vt 0.416667 0.400000
vt 0.472222 0.400000
vt 0.527778 0.400000
vt 0.583333 0.400000
vt 0.638889 0.400000
vt 0.694444 0.400000
vt 0.805556 0.600000
vt 0.750000 0.600000
vt 0.861111 0.600000
vt 0.916667 0.600000
vt 0.972222 0.600000
vt 0.027778 0.600000
vt -0.027778 0.600000
vt 0.083333 0.600000
vt 0.138889 0.600000
vt 0.194444 0.600000
vt 0.250000 0.600000
vt 0.305556 0.600000
vt 0.361111 0.600000
vt 0.416667 0.600000
vt 0.472222 0.600000
vt 0.527778 0.600000
vt 0.583333 0.600000
vt 0.638889 0.600000
vt 0.694444 0.600000
vt 0.805556 0.800000
vt 0.750000 0.800000
vt 0.861111 0.800000
vt 0.916667 0.800000
vt 0.972222 0.800000
vt 0.027778 0.800000
vt -0.027778 0.800000
vt 0.083333 0.800000
vt 0.138889 0.800000
vt 0.194444 0.800000
vt 0.250000 0.800000
vt 0.305556 0.800000
vt 0.361111 0.800000
vt 0.416667 0.800000
vt 0.472222 0.800000
vt 0.527778 0.800000
vt 0.583333 0.800000
vt 0.638889 0.800000
vt 0.694444 0.800000
vt 0.805556 1.000000
vt 0.750000 1.000000
vt 0.861111 1.000000
vt 0.916667 1.000000
vt 0.972222 1.000000
vt 0.027778 1.000000
vt -0.027778 1.000000
vt 0.083333 1.000000
vt 0.138889 1.000000
vt 0.194444 1.000000
vt 0.250000 1.000000
vt 0.305556 1.000000
vt 0.361111 1.000000
vt 0.416667 1.000000
vt 0.472222 1.000000
vt 0.527778 1.000000
vt 0.583333 1.000000
vt 0.638889 1.000000
vt 0.694444 1.000000
vt 0.500000 1.000000
vn 0.000000 -1.000000 -0.000000
vn 0.984800 0.000000 -0.173600
vn 0.984800 0.000000 -0.173700
vn 0.866000 0.000000 -0.500000
vn 0.642800 0.000000 -0.766000
vn 0.342000 0.000000 -0.939700
vn 0.000000 0.000000 -1.000000
vn -0.342000 0.000000 -0.939700
vn -0.642800 0.000000 -0.766000
vn -0.866000 0.000000 -0.500000
vn -0.984800 0.000000 -0.173600
vn -0.984800 0.000000 -0.173700
vn -0.984800 0.000000 0.173600
vn -0.866000 0.000000 0.500000
vn -0.642800 0.000000 0.766000
vn -0.342000 0.000000 0.939700
vn -0.000000 0.000000 1.000000
vn 0.342000 0.000000 0.939700
vn 0.642800 0.000000 0.766000
vn 0.866000 0.000000 0.500000
vn 0.984800 0.000000 0.173600
vn 0.984800 0.000000 0.173700
vn -0.984800 0.000000 0.173700
vn 0.000000 1.000000 0.000000
usemtl None
s off
f 1/1/1 3/2/1 2/3/1
f 1/1/1 4/4/1 3/2/1
f 1/1/1 5/5/1 4/4/1
f 1/1/1 6/6/1 5/5/1
f 1/1/1 7/7/1 111/8/1
f 1/1/1 8/9/1 7/7/1
f 1/1/1 9/10/1 8/9/1
f 1/1/1 10/11/1 9/10/1
f 1/1/1 11/12/1 10/11/1
f 1/1/1 12/13/1 11/12/1
f 1/1/1 13/14/1 12/13/1
f 1/1/1 14/15/1 13/14/1
f 1/1/1 15/16/1 14/15/1
f 1/1/1 16/17/1 15/16/1
f 1/1/1 17/18/1 16/17/1
f 1/1/1 18/19/1 17/18/1
f 1/1/1 19/20/1 18/19/1
f 1/1/1 2/3/1 19/20/1
f 2/3/2 21/21/2 20/22/2
f 2/3/3 3/2/3 21/21/3
f 3/2/4 22/23/4 21/21/4
f 3/2/4 4/4/4 22/23/4
f 4/4/5 23/24/5 22/23/5
f 4/4/5 5/5/5 23/24/5
f 5/5/6 24/25/6 23/24/6
f 5/5/6 6/6/6 24/25/6
f 112/8/7 25/26/7 113/27/7
f 114/8/7 7/7/7 25/26/7
f 7/7/8 26/28/8 25/26/8
f 7/7/8 8/9/8 26/28/8
f 8/9/9 27/29/9 26/28/9
f 8/9/9 9/10/9 27/29/9
f 9/10/10 28/30/10 27/29/10
f 9/10/10 10/11/10 28/30/10
f 10/11/11 29/31/11 28/30/11
f 10/11/12 11/12/12 29/31/12
f 11/12/13 30/32/13 29/31/13
f 11/12/13 12/13/13 30/32/13
f 12/13/14 31/33/14 30/32/14
f 12/13/14 13/14/14 31/33/14
f 13/14/15 32/34/15 31/33/15
f 13/14/15 14/15/15 32/34/15
f 14/15/16 33/35/16 32/34/16
f 14/15/16 15/16/16 33/35/16
f 15/16/17 34/36/17 33/35/17
f 15/16/17 16/17/17 34/36/17
f 16/17/18 35/37/18 34/36/18
f 16/17/18 17/18/18 35/37/18
f 17/18/19 36/38/19 35/37/19
f 17/18/19 18/19/19 36/38/19
f 18/19/20 37/39/20 36/38/20
f 18/19/20 19/20/20 37/39/20
f 19/20/21 20/22/21 37/39/21
f 19/20/22 2/3/22 20/22/22
f 20/22/2 39/40/2 38/41/2
f 20/22/2 21/21/2 39/40/2
f 21/21/4 40/42/4 39/40/4
f 21/21/4 22/23/4 40/42/4
f 22/23/5 41/43/5 40/42/5
f 22/23/5 23/24/5 41/43/5
f 23/24/6 42/44/6 41/43/6
f 23/24/6 24/25/6 42/44/6
f 115/27/7 43/45/7 116/46/7
f 117/27/7 25/26/7 43/45/7
f 25/26/8 44/47/8 43/45/8
f 25/26/8 26/28/8 44/47/8
f 26/28/9 45/48/9 44/47/9
f 26/28/9 27/29/9 45/48/9
f 27/29/10 46/49/10 45/48/10
f 27/29/10 28/30/10 46/49/10
f 28/30/11 47/50/11 46/49/11
f 28/30/11 29/31/11 47/50/11
f 29/31/13 48/51/13 47/50/13
f 29/31/13 30/32/13 48/51/13
f 30/32/14 49/52/14 48/51/14
f 30/32/14 31/33/14 49/52/14
f 31/33/15 50/53/15 49/52/15
f 31/33/15 32/34/15 50/53/15
f 32/34/16 51/54/16 50/53/16
f 32/34/16 33/35/16 51/54/16
f 33/35/17 52/55/17 51/54/17
f 33/35/17 34/36/17 52/55/17
f 34/36/18 53/56/18 52/55/18
f 34/36/18 35/37/18 53/56/18
f 35/37/19 54/57/19 53/56/19
f 35/37/19 36/38/19 54/57/19
f 36/38/20 55/58/20 54/57/20
f 36/38/20 37/39/20 55/58/20
f 37/39/21 38/41/21 55/58/21
f 37/39/21 20/22/21 38/41/21
f 38/41/2 57/59/2 56/60/2
f 38/41/3 39/40/3 57/59/3
f 39/40/4 58/61/4 57/59/4
f 39/40/4 40/42/4 58/61/4
f 40/42/5 59/62/5 58/61/5
f 40/42/5 41/43/5 59/62/5
f 41/43/6 60/63/6 59/62/6
f 41/43/6 42/44/6 60/63/6
f 118/46/7 61/64/7 119/65/7
f 120/46/7 43/45/7 61/64/7
f 43/45/8 62/66/8 61/64/8
f 43/45/8 44/47/8 62/66/8
f 44/47/9 63/67/9 62/66/9
f 44/47/9 45/48/9 63/67/9
f 45/48/10 64/68/10 63/67/10
f 45/48/10 46/49/10 64/68/10
f 46/49/11 65/69/11 64/68/11
f 46/49/12 47/50/12 65/69/12
f 47/50/13 66/70/13 65/69/13
f 47/50/13 48/51/13 66/70/13
f 48/51/14 67/71/14 66/70/14
f 48/51/14 49/52/14 67/71/14
f 49/52/15 68/72/15 67/71/15
f 49/52/15 50/53/15 68/72/15
f 50/53/16 69/73/16 68/72/16
f 50/53/16 51/54/16 69/73/16
f 51/54/17 70/74/17 69/73/17
f 51/54/17 52/55/17 70/74/17
f 52/55/18 71/75/18 70/74/18
f 52/55/18 53/56/18 71/75/18
f 53/56/19 72/76/19 71/75/19
f 53/56/19 54/57/19 72/76/19
f 54/57/20 73/77/20 72/76/20
f 54/57/20 55/58/20 73/77/20
f 55/58/21 56/60/21 73/77/21
f 55/58/22 38/41/22 56/60/22
f 56/60/2 75/78/2 74/79/2
f 56/60/2 57/59/2 75/78/2
f 57/59/4 76/80/4 75/78/4
f 57/59/4 58/61/4 76/80/4
f 58/61/5 77/81/5 76/80/5
f 58/61/5 59/62/5 77/81/5
f 59/62/6 78/82/6 77/81/6
f 59/62/6 60/63/6 78/82/6
f 121/65/7 79/83/7 122/84/7
f 123/65/7 61/64/7 79/83/7
f 61/64/8 80/85/8 79/83/8
f 61/64/8 62/66/8 80/85/8
f 62/66/9 81/86/9 80/85/9
f 62/66/9 63/67/9 81/86/9
f 63/67/10 82/87/10 81/86/10
f 63/67/10 64/68/10 82/87/10
f 64/68/11 83/88/11 82/87/11
f 64/68/11 65/69/11 83/88/11
f 65/69/13 84/89/13 83/88/13
f 65/69/13 66/70/13 84/89/13
f 66/70/14 85/90/14 84/89/14
f 66/70/14 67/71/14 85/90/14
f 67/71/15 86/91/15 85/90/15
f 67/71/15 68/72/15 86/91/15
f 68/72/16 87/92/16 86/91/16
f 68/72/16 69/73/16 87/92/16
f 69/73/17 88/93/17 87/92/17
f 69/73/17 70/74/17 88/93/17
f 70/74/18 89/94/18 88/93/18
f 70/74/18 71/75/18 89/94/18
f 71/75/19 90/95/19 89/94/19
f 71/75/19 72/76/19 90/95/19
f 72/76/20 91/96/20 90/95/20
f 72/76/20 73/77/20 91/96/20
f 73/77/21 74/79/21 91/96/21
f 73/77/21 56/60/21 74/79/21
f 74/79/3 93/97/3 92/98/3
f 74/79/2 75/78/2 93/97/2
f 75/78/4 94/99/4 93/97/4
f 75/78/4 76/80/4 94/99/4
f 76/80/5 95/100/5 94/99/5
f 76/80/5 77/81/5 95/100/5
f 77/81/6 96/101/6 95/100/6
f 77/81/6 78/82/6 96/101/6
f 124/84/7 97/102/7 125/103/7
f 126/84/7 79/83/7 97/102/7
f 79/83/8 98/104/8 97/102/8
f 79/83/8 80/85/8 98/104/8
f 80/85/9 99/105/9 98/104/9
f 80/85/9 81/86/9 99/105/9
f 81/86/10 100/106/10 99/105/10
f 81/86/10 82/87/10 100/106/10
f 82/87/12 101/107/12 100/106/12
f 82/87/11 83/88/11 101/107/11
f 83/88/23 102/108/23 101/107/23
f 83/88/13 84/89/13 102/108/13
f 84/89/14 103/109/14 102/108/14
f 84/89/14 85/90/14 103/109/14
f 85/90/15 104/110/15 103/109/15
f 85/90/15 86/91/15 104/110/15
f 86/91/16 105/111/16 104/110/16
f 86/91/16 87/92/16 105/111/16
f 87/92/17 106/112/17 105/111/17
f 87/92/17 88/93/17 106/112/17
f 88/93/18 107/113/18 106/112/18
f 88/93/18 89/94/18 107/113/18
f 89/94/19 108/114/19 107/113/19
f 89/94/19 90/95/19 108/114/19
f 90/95/20 109/115/20 108/114/20
f 90/95/20 91/96/20 109/115/20
f 91/96/22 92/98/22 109/115/22
f 91/96/21 74/79/21 92/98/21
f 110/116/24 92/98/24 93/97/24
f 110/116/24 93/97/24 94/99/24
f 110/116/24 94/99/24 95/100/24
f 110/116/24 95/100/24 96/101/24
f 110/116/24 127/103/24 97/102/24
f 110/116/24 97/102/24 98/104/24
f 110/116/24 98/104/24 99/105/24
f 110/116/24 99/105/24 100/106/24
f 110/116/24 100/106/24 101/107/24
f 110/116/24 101/107/24 102/108/24
f 110/116/24 102/108/24 103/109/24
f 110/116/24 103/109/24 104/110/24
f 110/116/24 104/110/24 105/111/24
f 110/116/24 105/111/24 106/112/24
f 110/116/24 106/112/24 107/113/24
f 110/116/24 107/113/24 108/114/24
f 110/116/24 108/114/24 109/115/24
f 110/116/24 109/115/24 92/98/24
o Cylinder01
v 0.000100 0.000100 -0.000100
v 0.464720 0.000100 -0.000100
v 0.436700 0.000100 -0.159010
v 0.356020 0.000100 -0.298752
v 0.232410 0.000100 -0.402473
v 0.080780 0.000100 -0.457662
v -0.080581 0.000100 -0.457662
v -0.232210 0.000100 -0.402473
v -0.355820 0.000100 -0.298752
v -0.436500 0.000100 -0.159010
v -0.464520 0.000100 -0.000100
v -0.436500 0.000100 0.158809
v -0.355820 0.000100 0.298552
v -0.232210 0.000100 0.402273
v -0.080581 0.000100 0.457462
v 0.080780 0.000100 0.457462
v 0.232410 0.000100 0.402273
v 0.356020 0.000100 0.298552
v 0.436700 0.000100 0.158810
v 0.464720 0.592317 -0.000100
v 0.436700 0.592317 -0.159010
v 0.356020 0.592317 -0.298752
v 0.232410 0.592317 -0.402473
v 0.080780 0.592317 -0.457662
v -0.080581 0.592317 -0.457662
v -0.232210 0.592317 -0.402473
v -0.355820 0.592317 -0.298752
v -0.436500 0.592317 -0.159010
v -0.464520 0.592317 -0.000100
v -0.436500 0.592317 0.158809
v -0.355820 0.592317 0.298552
v -0.232210 0.592317 0.402273
v -0.080581 0.592317 0.457462
v 0.080780 0.592317 0.457462
v 0.232410 0.592317 0.402273
v 0.356020 0.592317 0.298552
v 0.436700 0.592317 0.158810
v 0.464720 1.184533 -0.000100
v 0.436700 1.184533 -0.159010
v 0.356020 1.184533 -0.298752
v 0.232410 1.184533 -0.402473
v 0.080780 1.184533 -0.457662
v -0.080581 1.184533 -0.457662
v -0.232210 1.184533 -0.402473
v -0.355820 1.184533 -0.298752
v -0.436500 1.184533 -0.159010
v -0.464520 1.184533 -0.000100
v -0.436500 1.184533 0.158809
v -0.355820 1.184533 0.298552
v -0.232210 1.184533 0.402273
v -0.080581 1.184533 0.457462
v 0.080780 1.184533 0.457462
v 0.232410 1.184533 0.402273
v 0.356020 1.184533 0.298552
v 0.436700 1.184533 0.158810
v 0.464720 1.776750 -0.000100
v 0.436700 1.776750 -0.159010
v 0.356020 1.776750 -0.298752
v 0.232410 1.776750 -0.402473
v 0.080780 1.776750 -0.457662
v -0.080581 1.776750 -0.457662
v -0.232210 1.776750 -0.402473
v -0.355820 1.776750 -0.298752
v -0.436500 1.776750 -0.159010
v -0.464520 1.776750 -0.000100
v -0.436500 1.776750 0.158809
v -0.355820 1.776750 0.298552
v -0.232210 1.776750 0.402273
v -0.080581 1.776750 0.457462
v 0.080780 1.776750 0.457462
v 0.232410 1.776750 0.402273
v 0.356020 1.776750 0.298552
v 0.436700 1.776750 0.158810
v 0.464720 2.368967 -0.000100
v 0.436700 2.368967 -0.159010
v 0.356020 2.368967 -0.298752
v 0.232410 2.368967 -0.402473
v 0.080780 2.368967 -0.457662
v -0.080581 2.368967 -0.457662
v -0.232210 2.368967 -0.402473
v -0.355820 2.368967 -0.298752
v -0.436500 2.368967 -0.159010
v -0.464520 2.368967 -0.000100
v -0.436500 2.368967 0.158809
v -0.355820 2.368967 0.298552
v -0.232210 2.368967 0.402273
v -0.080581 2.368967 0.457462
v 0.080780 2.368967 0.457462
v 0.232410 2.368967 0.402273
v 0.356020 2.368967 0.298552
v 0.436700 2.368967 0.158810
v 0.464720 2.961183 -0.000100
v 0.436700 2.961183 -0.159010
v 0.356020 2.961183 -0.298752
v 0.232410 2.961183 -0.402473
v 0.080780 2.961183 -0.457662
v -0.080581 2.961183 -0.457662
v -0.232210 2.961183 -0.402473
v -0.355820 2.961183 -0.298752
v -0.436500 2.961183 -0.159010
v -0.464520 2.961183 -0.000100
v -0.436500 2.961183 0.158809
v -0.355820 2.961183 0.298552
v -0.232210 2.961183 0.402273
v -0.080581 2.961183 0.457462
v 0.080780 2.961183 0.457462
v 0.232410 2.961183 0.402273
v 0.356020 2.961183 0.298552
v 0.436700 2.961183 0.158810
v 0.000100 2.961183 -0.000100
v 0.080780 0.000100 -0.457662
v 0.080780 0.000100 -0.457662
v 0.080780 0.592317 -0.457662
v 0.080780 0.000100 -0.457662
v 0.080780 0.592317 -0.457662
v 0.080780 1.184533 -0.457662
v 0.080780 0.592317 -0.457662
v 0.080780 1.184533 -0.457662
v 0.080780 1.776750 -0.457662
v 0.080780 1.184533 -0.457662
v 0.080780 1.776750 -0.457662
v 0.080780 2.368967 -0.457662
v 0.080780 1.776750 -0.457662
v 0.080780 2.368967 -0.457662
v 0.080780 2.961183 -0.457662
v 0.080780 2.368967 -0.457662
v 0.080780 2.961183 -0.457662
vt 0.500000 0.000000
vt 0.805556 0.000000
vt 0.750000 0.000000
vt 0.861111 0.000000
vt 0.916667 0.000000
vt 0.972222 0.000000
vt 0.027778 0.000000
vt -0.027778 0.000000
vt 0.083333 0.000000
vt 0.138889 0.000000
vt 0.194444 0.000000
vt 0.250000 0.000000
vt 0.305556 0.000000
vt 0.361111 0.000000
vt 0.416667 0.000000
vt 0.472222 0.000000
vt 0.527778 0.000000
vt 0.583333 0.000000
vt 0.638889 0.000000
vt 0.694444 0.000000
vt 0.805556 0.200000
vt 0.750000 0.200000
vt 0.861111 0.200000
vt 0.916667 0.200000
vt 0.972222 0.200000
vt 0.027778 0.200000
vt -0.027778 0.200000
vt 0.083333 0.200000
vt 0.138889 0.200000
vt 0.194444 0.200000
vt 0.250000 0.200000
vt 0.305556 0.200000
vt 0.361111 0.200000
vt 0.416667 0.200000
vt 0.472222 0.200000
vt 0.527778 0.200000
vt 0.583333 0.200000
vt 0.638889 0.200000
vt 0.694444 0.200000
vt 0.805556 0.400000
vt 0.750000 0.400000
vt 0.861111 0.400000
vt 0.916667 0.400000
vt 0.972222 0.400000
vt 0.027778 0.400000
vt -0.027778 0.400000
vt 0.083333 0.400000
vt 0.138889 0.400000
vt 0.194444 0.400000
vt 0.250000 0.400000
vt 0.305556 0.400000
vt 0.361111 0.400000
vt 0.416667 0.400000
vt 0.472222 0.400000
vt 0.527778 0.400000
vt 0.583333 0.400000
vt 0.638889 0.400000
vt 0.694444 0.400000
vt 0.805556 0.600000
vt 0.750000 0.600000
vt 0.861111 0.600000
vt 0.916667 0.600000
vt 0.972222 0.600000
vt 0.027778 0.600000
vt -0.027778 0.600000
vt 0.083333 0.600000
vt 0.138889 0.600000
vt 0.194444 0.600000
vt 0.250000 0.600000
vt 0.305556 0.600000
vt 0.361111 0.600000
vt 0.416667 0.600000
vt 0.472222 0.600000
vt 0.527778 0.600000
vt 0.583333 0.600000
vt 0.638889 0.600000
vt 0.694444 0.600000
vt 0.805556 0.800000
vt 0.750000 0.800000
vt 0.861111 0.800000
vt 0.916667 0.800000
vt 0.972222 0.800000
vt 0.027778 0.800000
vt -0.027778 0.800000
vt 0.083333 0.800000
vt 0.138889 0.800000
vt 0.194444 0.800000
vt 0.250000 0.800000
vt 0.305556 0.800000
vt 0.361111 0.800000
vt 0.416667 0.800000
vt 0.472222 0.800000
vt 0.527778 0.800000
vt 0.583333 0.800000
vt 0.638889 0.800000
vt 0.694444 0.800000
vt 0.805556 1.000000
vt 0.750000 1.000000
vt 0.861111 1.000000
vt 0.916667 1.000000
vt 0.972222 1.000000
vt 0.027778 1.000000
vt -0.027778 1.000000
vt 0.083333 1.000000
vt 0.138889 1.000000
vt 0.194444 1.000000
vt 0.250000 1.000000
vt 0.305556 1.000000
vt 0.361111 1.000000
vt 0.416667 1.000000
vt 0.472222 1.000000
vt 0.527778 1.000000
vt 0.583333 1.000000
vt 0.638889 1.000000
vt 0.694444 1.000000
vt 0.500000 1.000000
vn 0.000000 -1.000000 -0.000000
vn 0.984800 0.000000 -0.173600
vn 0.866000 0.000000 -0.500000
vn 0.642800 0.000000 -0.766000
vn 0.342000 0.000000 -0.939700
vn 0.000000 0.000000 -1.000000
vn -0.342000 0.000000 -0.939700
vn -0.642800 0.000000 -0.766000
vn -0.866000 0.000000 -0.500000
vn -0.984800 0.000000 -0.173600
vn -0.984800 0.000000 0.173600
vn -0.866000 0.000000 0.500000
vn -0.642800 0.000000 0.766000
vn -0.342000 0.000000 0.939700
vn -0.000000 0.000000 1.000000
vn 0.342000 0.000000 0.939700
vn 0.642800 0.000000 0.766000
vn 0.866000 0.000000 0.500000
vn 0.984800 0.000000 0.173600
vn 0.000000 1.000000 -0.000000
usemtl None
s off
f 128/117/25 130/118/25 129/119/25
f 128/117/25 131/120/25 130/118/25
f 128/117/25 132/121/25 131/120/25
f 128/117/25 133/122/25 132/121/25
f 128/117/25 134/123/25 238/124/25
f 128/117/25 135/125/25 134/123/25
f 128/117/25 136/126/25 135/125/25
f 128/117/25 137/127/25 136/126/25
f 128/117/25 138/128/25 137/127/25
f 128/117/25 139/129/25 138/128/25
f 128/117/25 140/130/25 139/129/25
f 128/117/25 141/131/25 140/130/25
f 128/117/25 142/132/25 141/131/25
f 128/117/25 143/133/25 142/132/25
f 128/117/25 144/134/25 143/133/25
f 128/117/25 145/135/25 144/134/25
f 128/117/25 146/136/25 145/135/25
f 128/117/25 129/119/25 146/136/25
f 129/119/26 148/137/26 147/138/26
f 129/119/26 130/118/26 148/137/26
f 130/118/27 149/139/27 148/137/27
f 130/118/27 131/120/27 149/139/27
f 131/120/28 150/140/28 149/139/28
f 131/120/28 132/121/28 150/140/28
f 132/121/29 151/141/29 150/140/29
f 132/121/29 133/122/29 151/141/29
f 239/124/30 152/142/30 240/143/30
f 241/124/30 134/123/30 152/142/30
f 134/123/31 153/144/31 152/142/31
f 134/123/31 135/125/31 153/144/31
f 135/125/32 154/145/32 153/144/32
f 135/125/32 136/126/32 154/145/32
f 136/126/33 155/146/33 154/145/33
f 136/126/33 137/127/33 155/146/33
f 137/127/34 156/147/34 155/146/34
f 137/127/34 138/128/34 156/147/34
f 138/128/35 157/148/35 156/147/35
f 138/128/35 139/129/35 157/148/35
f 139/129/36 158/149/36 157/148/36
f 139/129/36 140/130/36 158/149/36
f 140/130/37 159/150/37 158/149/37
f 140/130/37 141/131/37 159/150/37
f 141/131/38 160/151/38 159/150/38
f 141/131/38 142/132/38 160/151/38
f 142/132/39 161/152/39 160/151/39
f 142/132/39 143/133/39 161/152/39
f 143/133/40 162/153/40 161/152/40
f 143/133/40 144/134/40 162/153/40
f 144/134/41 163/154/41 162/153/41
f 144/134/41 145/135/41 163/154/41
f 145/135/42 164/155/42 163/154/42
f 145/135/42 146/136/42 164/155/42
f 146/136/43 147/138/43 164/155/43
f 146/136/43 129/119/43 147/138/43
f 147/138/26 166/156/26 165/157/26
f 147/138/26 148/137/26 166/156/26
f 148/137/27 167/158/27 166/156/27
f 148/137/27 149/139/27 167/158/27
f 149/139/28 168/159/28 167/158/28
f 149/139/28 150/140/28 168/159/28
f 150/140/29 169/160/29 168/159/29
f 150/140/29 151/141/29 169/160/29
f 242/143/30 170/161/30 243/162/30
f 244/143/30 152/142/30 170/161/30
f 152/142/31 171/163/31 170/161/31
f 152/142/31 153/144/31 171/163/31
f 153/144/32 172/164/32 171/163/32
f 153/144/32 154/145/32 172/164/32
f 154/145/33 173/165/33 172/164/33
f 154/145/33 155/146/33 173/165/33
f 155/146/34 174/166/34 173/165/34
f 155/146/34 156/147/34 174/166/34
f 156/147/35 175/167/35 174/166/35
f 156/147/35 157/148/35 175/167/35
f 157/148/36 176/168/36 175/167/36
f 157/148/36 158/149/36 176/168/36
f 158/149/37 177/169/37 176/168/37
f 158/149/37 159/150/37 177/169/37
f 159/150/38 178/170/38 177/169/38
f 159/150/38 160/151/38 178/170/38
f 160/151/39 179/171/39 178/170/39
f 160/151/39 161/152/39 179/171/39
f 161/152/40 180/172/40 179/171/40
f 161/152/40 162/153/40 180/172/40
f 162/153/41 181/173/41 180/172/41
f 162/153/41 163/154/41 181/173/41
f 163/154/42 182/174/42 181/173/42
f 163/154/42 164/155/42 182/174/42
f 164/155/43 165/157/43 182/174/43
f 164/155/43 147/138/43 165/157/43
f 165/157/26 184/175/26 183/176/26
f 165/157/26 166/156/26 184/175/26
f 166/156/27 185/177/27 184/175/27
f 166/156/27 167/158/27 185/177/27
f 167/158/28 186/178/28 185/177/28
f 167/158/28 168/159/28 186/178/28
f 168/159/29 187/179/29 186/178/29
f 168/159/29 169/160/29 187/179/29
f 245/162/30 188/180/30 246/181/30
f 247/162/30 170/161/30 188/180/30
f 170/161/31 189/182/31 188/180/31
f 170/161/31 171/163/31 189/182/31
f 171/163/32 190/183/32 189/182/32
f 171/163/32 172/164/32 190/183/32
f 172/164/33 191/184/33 190/183/33
f 172/164/33 173/165/33 191/184/33
f 173/165/34 192/185/34 191/184/34
f 173/165/34 174/166/34 192/185/34
f 174/166/35 193/186/35 192/185/35
f 174/166/35 175/167/35 193/186/35
f 175/167/36 194/187/36 193/186/36
f 175/167/36 176/168/36 194/187/36
f 176/168/37 195/188/37 194/187/37
f 176/168/37 177/169/37 195/188/37
f 177/169/38 196/189/38 195/188/38
f 177/169/38 178/170/38 196/189/38
f 178/170/39 197/190/39 196/189/39
f 178/170/39 179/171/39 197/190/39
f 179/171/40 198/191/40 197/190/40
f 179/171/40 180/172/40 198/191/40
f 180/172/41 199/192/41 198/191/41
f 180/172/41 181/173/41 199/192/41
f 181/173/42 200/193/42 199/192/42
f 181/173/42 182/174/42 200/193/42
f 182/174/43 183/176/43 200/193/43
f 182/174/43 165/157/43 183/176/43
f 183/176/26 202/194/26 201/195/26
f 183/176/26 184/175/26 202/194/26
f 184/175/27 203/196/27 202/194/27
f 184/175/27 185/177/27 203/196/27
f 185/177/28 204/197/28 203/196/28
f 185/177/28 186/178/28 204/197/28
f 186/178/29 205/198/29 204/197/29
f 186/178/29 187/179/29 205/198/29
f 248/181/30 206/199/30 249/200/30
f 250/181/30 188/180/30 206/199/30
f 188/180/31 207/201/31 206/199/31
f 188/180/31 189/182/31 207/201/31
f 189/182/32 208/202/32 207/201/32
f 189/182/32 190/183/32 208/202/32
f 190/183/33 209/203/33 208/202/33
f 190/183/33 191/184/33 209/203/33
f 191/184/34 210/204/34 209/203/34
f 191/184/34 192/185/34 210/204/34
f 192/185/35 211/205/35 210/204/35
f 192/185/35 193/186/35 211/205/35
f 193/186/36 212/206/36 211/205/36
f 193/186/36 194/187/36 212/206/36
f 194/187/37 213/207/37 212/206/37
f 194/187/37 195/188/37 213/207/37
f 195/188/38 214/208/38 213/207/38
f 195/188/38 196/189/38 214/208/38
f 196/189/39 215/209/39 214/208/39
f 196/189/39 197/190/39 215/209/39
f 197/190/40 216/210/40 215/209/40
f 197/190/40 198/191/40 216/210/40
f 198/191/41 217/211/41 216/210/41
f 198/191/41 199/192/41 217/211/41
f 199/192/42 218/212/42 217/211/42
f 199/192/42 200/193/42 218/212/42
f 200/193/43 201/195/43 218/212/43
f 200/193/43 183/176/43 201/195/43
f 201/195/26 220/213/26 219/214/26
f 201/195/26 202/194/26 220/213/26
f 202/194/27 221/215/27 220/213/27
f 202/194/27 203/196/27 221/215/27
f 203/196/28 222/216/28 221/215/28
f 203/196/28 204/197/28 222/216/28
f 204/197/29 223/217/29 222/216/29
f 204/197/29 205/198/29 223/217/29
f 251/200/30 224/218/30 252/219/30
f 253/200/30 206/199/30 224/218/30
f 206/199/31 225/220/31 224/218/31
f 206/199/31 207/201/31 225/220/31
f 207/201/32 226/221/32 225/220/32
f 207/201/32 208/202/32 226/221/32
f 208/202/33 227/222/33 226/221/33
f 208/202/33 209/203/33 227/222/33
f 209/203/34 228/223/34 227/222/34
f 209/203/34 210/204/34 228/223/34
f 210/204/35 229/224/35 228/223/35
f 210/204/35 211/205/35 229/224/35
f 211/205/36 230/225/36 229/224/36
f 211/205/36 212/206/36 230/225/36
f 212/206/37 231/226/37 230/225/37
f 212/206/37 213/207/37 231/226/37
f 213/207/38 232/227/38 231/226/38
f 213/207/38 214/208/38 232/227/38
f 214/208/39 233/228/39 232/227/39
f 214/208/39 215/209/39 233/228/39
f 215/209/40 234/229/40 233/228/40
f 215/209/40 216/210/40 234/229/40
f 216/210/41 235/230/41 234/229/41
f 216/210/41 217/211/41 235/230/41
f 217/211/42 236/231/42 235/230/42
f 217/211/42 218/212/42 236/231/42
f 218/212/43 219/214/43 236/231/43
f 218/212/43 201/195/43 219/214/43
f 237/232/44 219/214/44 220/213/44
f 237/232/44 220/213/44 221/215/44
f 237/232/44 221/215/44 222/216/44
f 237/232/44 222/216/44 223/217/44
f 237/232/44 254/219/44 224/218/44
f 237/232/44 224/218/44 225/220/44
f 237/232/44 225/220/44 226/221/44
f 237/232/44 226/221/44 227/222/44
f 237/232/44 227/222/44 228/223/44
f 237/232/44 228/223/44 229/224/44
f 237/232/44 229/224/44 230/225/44
f 237/232/44 230/225/44 231/226/44
f 237/232/44 231/226/44 232/227/44
f 237/232/44 232/227/44 233/228/44
f 237/232/44 233/228/44 234/229/44
f 237/232/44 234/229/44 235/230/44
f 237/232/44 235/230/44 236/231/44
f 237/232/44 236/231/44 219/214/44
o Cylinder00
v 0.000100 0.000100 -0.000100
v 2.368967 0.000100 -0.000100
v 2.226106 0.000100 -0.810300
v 1.814757 0.000100 -1.522778
v 1.184533 0.000100 -2.051599
v 0.411449 0.000100 -2.332978
v -0.411250 0.000100 -2.332978
v -1.184333 0.000100 -2.051599
v -1.814557 0.000100 -1.522778
v -2.225906 0.000100 -0.810300
v -2.368767 0.000100 -0.000100
v -2.225907 0.000100 0.810100
v -1.814557 0.000100 1.522578
v -1.184334 0.000100 2.051398
v -0.411250 0.000100 2.332778
v 0.411448 0.000100 2.332778
v 1.184532 0.000100 2.051399
v 1.814756 0.000100 1.522579
v 2.226106 0.000100 0.810102
v 2.368967 0.027173 -0.000100
v 2.226106 0.027173 -0.810300
v 1.814757 0.027173 -1.522778
v 1.184533 0.027173 -2.051599
v 0.411449 0.027173 -2.332978
v -0.411250 0.027173 -2.332978
v -1.184333 0.027173 -2.051599
v -1.814557 0.027173 -1.522778
v -2.225907 0.027173 -0.810300
v -2.368767 0.027173 -0.000100
v -2.225907 0.027173 0.810100
v -1.814558 0.027173 1.522578
v -1.184334 0.027173 2.051398
v -0.411250 0.027173 2.332778
v 0.411448 0.027173 2.332779
v 1.184532 0.027173 2.051399
v 1.814756 0.027173 1.522579
v 2.226106 0.027173 0.810102
v 2.368967 0.054246 -0.000100
v 2.226106 0.054246 -0.810300
v 1.814757 0.054246 -1.522778
v 1.184533 0.054246 -2.051599
v 0.411449 0.054246 -2.332978
v -0.411250 0.054246 -2.332978
v -1.184333 0.054246 -2.051599
v -1.814557 0.054246 -1.522778
v -2.225907 0.054246 -0.810300
v -2.368767 0.054246 -0.000100
v -2.225907 0.054246 0.810100
v -1.814558 0.054246 1.522578
v -1.184334 0.054246 2.051398
v -0.411250 0.054246 2.332778
v 0.411448 0.054246 2.332779
v 1.184532 0.054246 2.051399
v 1.814756 0.054246 1.522579
v 2.226106 0.054246 0.810102
v 2.368967 0.081318 -0.000100
v 2.226106 0.081318 -0.810300
v 1.814757 0.081318 -1.522778
v 1.184533 0.081318 -2.051599
v 0.411449 0.081318 -2.332978
v -0.411250 0.081318 -2.332978
v -1.184333 0.081318 -2.051599
v -1.814557 0.081318 -1.522778
v -2.225906 0.081318 -0.810300
v -2.368767 0.081318 -0.000100
v -2.225907 0.081318 0.810100
v -1.814557 0.081318 1.522578
v -1.184334 0.081318 2.051398
v -0.411250 0.081318 2.332778
v 0.411448 0.081318 2.332778
v 1.184532 0.081318 2.051399
v 1.814756 0.081318 1.522579
v 2.226106 0.081318 0.810102
v 2.368967 0.108391 -0.000100
v 2.226106 0.108391 -0.810300
v 1.814757 0.108391 -1.522778
v 1.184533 0.108391 -2.051599
v 0.411449 0.108391 -2.332978
v -0.411250 0.108391 -2.332978
v -1.184333 0.108391 -2.051599
v -1.814557 0.108391 -1.522778
v -2.225907 0.108391 -0.810300
v -2.368767 0.108391 -0.000100
v -2.225907 0.108391 0.810100
v -1.814558 0.108391 1.522578
v -1.184334 0.108391 2.051398
v -0.411250 0.108391 2.332778
v 0.411448 0.108391 2.332779
v 1.184532 0.108391 2.051399
v 1.814756 0.108391 1.522579
v 2.226106 0.108391 0.810102
v 2.368967 0.135464 -0.000100
v 2.226106 0.135464 -0.810300
v 1.814757 0.135464 -1.522778
v 1.184533 0.135464 -2.051599
v 0.411449 0.135464 -2.332978
v -0.411250 0.135464 -2.332978
v -1.184333 0.135464 -2.051599
v -1.814557 0.135464 -1.522778
v -2.225906 0.135464 -0.810300
v -2.368767 0.135464 -0.000100
v -2.225907 0.135464 0.810100
v -1.814557 0.135464 1.522578
v -1.184334 0.135464 2.051398
v -0.411250 0.135464 2.332778
v 0.411448 0.135464 2.332778
v 1.184532 0.135464 2.051399
v 1.814756 0.135464 1.522579
v 2.226106 0.135464 0.810102
v 0.000100 0.135464 -0.000100
v 0.411449 0.000100 -2.332978
v 0.411449 0.000100 -2.332978
v 0.411449 0.027173 -2.332978
v 0.411449 0.000100 -2.332978
v 0.411449 0.027173 -2.332978
v 0.411449 0.054246 -2.332978
v 0.411449 0.027173 -2.332978
v 0.411449 0.054246 -2.332978
v 0.411449 0.081318 -2.332978
v 0.411449 0.054246 -2.332978
v 0.411449 0.081318 -2.332978
v 0.411449 0.108391 -2.332978
v 0.411449 0.081318 -2.332978
v 0.411449 0.108391 -2.332978
v 0.411449 0.135464 -2.332978
v 0.411449 0.108391 -2.332978
v 0.411449 0.135464 -2.332978
vt 0.500000 0.000000
vt 0.805556 0.000000
vt 0.750000 0.000000
vt 0.861111 0.000000
vt 0.916667 0.000000
vt 0.972222 0.000000
vt 0.027778 0.000000
vt -0.027778 0.000000
vt 0.083333 0.000000
vt 0.138889 0.000000
vt 0.194444 0.000000
vt 0.250000 0.000000
vt 0.305556 0.000000
vt 0.361111 0.000000
vt 0.416667 0.000000
vt 0.472222 0.000000
vt 0.527778 0.000000
vt 0.583333 0.000000
vt 0.638889 0.000000
vt 0.694444 0.000000
vt 0.805556 0.200000
vt 0.750000 0.200000
vt 0.861111 0.200000
vt 0.916667 0.200000
vt 0.972222 0.200000
vt 0.027778 0.200000
vt -0.027778 0.200000
vt 0.083333 0.200000
vt 0.138889 0.200000
vt 0.194444 0.200000
vt 0.250000 0.200000
vt 0.305556 0.200000
vt 0.361111 0.200000
vt 0.416667 0.200000
vt 0.472222 0.200000
vt 0.527778 0.200000
vt 0.583333 0.200000
vt 0.638889 0.200000
vt 0.694444 0.200000
vt 0.805556 0.400000
vt 0.750000 0.400000
vt 0.861111 0.400000
vt 0.916667 0.400000
vt 0.972222 0.400000
vt 0.027778 0.400000
vt -0.027778 0.400000
vt 0.083333 0.400000
vt 0.138889 0.400000
vt 0.194444 0.400000
vt 0.250000 0.400000
vt 0.305556 0.400000
vt 0.361111 0.400000
vt 0.416667 0.400000
vt 0.472222 0.400000
vt 0.527778 0.400000
vt 0.583333 0.400000
vt 0.638889 0.400000
vt 0.694444 0.400000
vt 0.805556 0.600000
vt 0.750000 0.600000
vt 0.861111 0.600000
vt 0.916667 0.600000
vt 0.972222 0.600000
vt 0.027778 0.600000
vt -0.027778 0.600000
vt 0.083333 0.600000
vt 0.138889 0.600000
vt 0.194444 0.600000
vt 0.250000 0.600000
vt 0.305556 0.600000
vt 0.361111 0.600000
vt 0.416667 0.600000
vt 0.472222 0.600000
vt 0.527778 0.600000
vt 0.583333 0.600000
vt 0.638889 0.600000
vt 0.694444 0.600000
vt 0.805556 0.800000
vt 0.750000 0.800000
vt 0.861111 0.800000
vt 0.916667 0.800000
vt 0.972222 0.800000
vt 0.027778 0.800000
vt -0.027778 0.800000
vt 0.083333 0.800000
vt 0.138889 0.800000
vt 0.194444 0.800000
vt 0.250000 0.800000
vt 0.305556 0.800000
vt 0.361111 0.800000
vt 0.416667 0.800000
vt 0.472222 0.800000
vt 0.527778 0.800000
vt 0.583333 0.800000
vt 0.638889 0.800000
vt 0.694444 0.800000
vt 0.805556 1.000000
vt 0.750000 1.000000
vt 0.861111 1.000000
vt 0.916667 1.000000
vt 0.972222 1.000000
vt 0.027778 1.000000
vt -0.027778 1.000000
vt 0.083333 1.000000
vt 0.138889 1.000000
vt 0.194444 1.000000
vt 0.250000 1.000000
vt 0.305556 1.000000
vt 0.361111 1.000000
vt 0.416667 1.000000
vt 0.472222 1.000000
vt 0.527778 1.000000
vt 0.583333 1.000000
vt 0.638889 1.000000
vt 0.694444 1.000000
vt 0.500000 1.000000
vn 0.000000 -1.000000 0.000000
vn 0.984800 -0.000000 -0.173600
vn 0.866000 0.000000 -0.500000
vn 0.642800 -0.000000 -0.766000
vn 0.342000 -0.000000 -0.939700
vn 0.000000 -0.000000 -1.000000
vn -0.342000 -0.000000 -0.939700
vn -0.642800 -0.000000 -0.766000
vn -0.866000 -0.000000 -0.500000
vn -0.984800 0.000000 -0.173600
vn -0.984800 -0.000000 0.173600
vn -0.866000 0.000000 0.500000
vn -0.642800 -0.000000 0.766000
vn -0.342000 0.000000 0.939700
vn -0.000000 -0.000000 1.000000
vn 0.342000 -0.000000 0.939700
vn 0.642800 -0.000000 0.766000
vn 0.866000 0.000000 0.500000
vn 0.984800 0.000000 0.173600
vn 0.000000 1.000000 -0.000000
usemtl None
s off
f 255/233/45 257/234/45 256/235/45
f 255/233/45 258/236/45 257/234/45
f 255/233/45 259/237/45 258/236/45
f 255/233/45 260/238/45 259/237/45
f 255/233/45 261/239/45 365/240/45
f 255/233/45 262/241/45 261/239/45
f 255/233/45 263/242/45 262/241/45
f 255/233/45 264/243/45 263/242/45
f 255/233/45 265/244/45 264/243/45
f 255/233/45 266/245/45 265/244/45
f 255/233/45 267/246/45 266/245/45
f 255/233/45 268/247/45 267/246/45
f 255/233/45 269/248/45 268/247/45
f 255/233/45 270/249/45 269/248/45
f 255/233/45 271/250/45 270/249/45
f 255/233/45 272/251/45 271/250/45
f 255/233/45 273/252/45 272/251/45
f 255/233/45 256/235/45 273/252/45
f 256/235/46 275/253/46 274/254/46
f 256/235/46 257/234/46 275/253/46
f 257/234/47 276/255/47 275/253/47
f 257/234/47 258/236/47 276/255/47
f 258/236/48 277/256/48 276/255/48
f 258/236/48 259/237/48 277/256/48
f 259/237/49 278/257/49 277/256/49
f 259/237/49 260/238/49 278/257/49
f 366/240/50 279/258/50 367/259/50
f 368/240/50 261/239/50 279/258/50
f 261/239/51 280/260/51 279/258/51
f 261/239/51 262/241/51 280/260/51
f 262/241/52 281/261/52 280/260/52
f 262/241/52 263/242/52 281/261/52
f 263/242/53 282/262/53 281/261/53
f 263/242/53 264/243/53 282/262/53
f 264/243/54 283/263/54 282/262/54
f 264/243/54 265/244/54 283/263/54
f 265/244/55 284/264/55 283/263/55
f 265/244/55 266/245/55 284/264/55
f 266/245/56 285/265/56 284/264/56
f 266/245/56 267/246/56 285/265/56
f 267/246/57 286/266/57 285/265/57
f 267/246/57 268/247/57 286/266/57
f 268/247/58 287/267/58 286/266/58
f 268/247/58 269/248/58 287/267/58
f 269/248/59 288/268/59 287/267/59
f 269/248/59 270/249/59 288/268/59
f 270/249/60 289/269/60 288/268/60
f 270/249/60 271/250/60 289/269/60
f 271/250/61 290/270/61 289/269/61
f 271/250/61 272/251/61 290/270/61
f 272/251/62 291/271/62 290/270/62
f 272/251/62 273/252/62 291/271/62
f 273/252/63 274/254/63 291/271/63
f 273/252/63 256/235/63 274/254/63
f 274/254/46 293/272/46 292/273/46
f 274/254/46 275/253/46 293/272/46
f 275/253/47 294/274/47 293/272/47
f 275/253/47 276/255/47 294/274/47
f 276/255/48 295/275/48 294/274/48
f 276/255/48 277/256/48 295/275/48
f 277/256/49 296/276/49 295/275/49
f 277/256/49 278/257/49 296/276/49
f 369/259/50 297/277/50 370/278/50
f 371/259/50 279/258/50 297/277/50
f 279/258/51 298/279/51 297/277/51
f 279/258/51 280/260/51 298/279/51
f 280/260/52 299/280/52 298/279/52
f 280/260/52 281/261/52 299/280/52
f 281/261/53 300/281/53 299/280/53
f 281/261/53 282/262/53 300/281/53
f 282/262/54 301/282/54 300/281/54
f 282/262/54 283/263/54 301/282/54
f 283/263/55 302/283/55 301/282/55
f 283/263/55 284/264/55 302/283/55
f 284/264/56 303/284/56 302/283/56
f 284/264/56 285/265/56 303/284/56
f 285/265/57 304/285/57 303/284/57
f 285/265/57 286/266/57 304/285/57
f 286/266/58 305/286/58 304/285/58
f 286/266/58 287/267/58 305/286/58
f 287/267/59 306/287/59 305/286/59
f 287/267/59 288/268/59 306/287/59
f 288/268/60 307/288/60 306/287/60
f 288/268/60 289/269/60 307/288/60
f 289/269/61 308/289/61 307/288/61
f 289/269/61 290/270/61 308/289/61
f 290/270/62 309/290/62 308/289/62
f 290/270/62 291/271/62 309/290/62
f 291/271/63 292/273/63 309/290/63
f 291/271/63 274/254/63 292/273/63
f 292/273/46 311/291/46 310/292/46
f 292/273/46 293/272/46 311/291/46
f 293/272/47 312/293/47 311/291/47
f 293/272/47 294/274/47 312/293/47
f 294/274/48 313/294/48 312/293/48
f 294/274/48 295/275/48 313/294/48
f 295/275/49 314/295/49 313/294/49
f 295/275/49 296/276/49 314/295/49
f 372/278/50 315/296/50 373/297/50
f 374/278/50 297/277/50 315/296/50
f 297/277/51 316/298/51 315/296/51
f 297/277/51 298/279/51 316/298/51
f 298/279/52 317/299/52 316/298/52
f 298/279/52 299/280/52 317/299/52
f 299/280/53 318/300/53 317/299/53
f 299/280/53 300/281/53 318/300/53
f 300/281/54 319/301/54 318/300/54
f 300/281/54 301/282/54 319/301/54
f 301/282/55 320/302/55 319/301/55
f 301/282/55 302/283/55 320/302/55
f 302/283/56 321/303/56 320/302/56
f 302/283/56 303/284/56 321/303/56
f 303/284/57 322/304/57 321/303/57
f 303/284/57 304/285/57 322/304/57
f 304/285/58 323/305/58 322/304/58
f 304/285/58 305/286/58 323/305/58
f 305/286/59 324/306/59 323/305/59
f 305/286/59 306/287/59 324/306/59
f 306/287/60 325/307/60 324/306/60
f 306/287/60 307/288/60 325/307/60
f 307/288/61 326/308/61 325/307/61
f 307/288/61 308/289/61 326/308/61
f 308/289/62 327/309/62 326/308/62
f 308/289/62 309/290/62 327/309/62
f 309/290/63 310/292/63 327/309/63
f 309/290/63 292/273/63 310/292/63
f 310/292/46 329/310/46 328/311/46
f 310/292/46 311/291/46 329/310/46
f 311/291/47 330/312/47 329/310/47
f 311/291/47 312/293/47 330/312/47
f 312/293/48 331/313/48 330/312/48
f 312/293/48 313/294/48 331/313/48
f 313/294/49 332/314/49 331/313/49
f 313/294/49 314/295/49 332/314/49
f 375/297/50 333/315/50 376/316/50
f 377/297/50 315/296/50 333/315/50
f 315/296/51 334/317/51 333/315/51
f 315/296/51 316/298/51 334/317/51
f 316/298/52 335/318/52 334/317/52
f 316/298/52 317/299/52 335/318/52
f 317/299/53 336/319/53 335/318/53
f 317/299/53 318/300/53 336/319/53
f 318/300/54 337/320/54 336/319/54
f 318/300/54 319/301/54 337/320/54
f 319/301/55 338/321/55 337/320/55
f 319/301/55 320/302/55 338/321/55
f 320/302/56 339/322/56 338/321/56
f 320/302/56 321/303/56 339/322/56
f 321/303/57 340/323/57 339/322/57
f 321/303/57 322/304/57 340/323/57
f 322/304/58 341/324/58 340/323/58
f 322/304/58 323/305/58 341/324/58
f 323/305/59 342/325/59 341/324/59
f 323/305/59 324/306/59 342/325/59
f 324/306/60 343/326/60 342/325/60
f 324/306/60 325/307/60 343/326/60
f 325/307/61 344/327/61 343/326/61
f 325/307/61 326/308/61 344/327/61
f 326/308/62 345/328/62 344/327/62
f 326/308/62 327/309/62 345/328/62
f 327/309/63 328/311/63 345/328/63
f 327/309/63 310/292/63 328/311/63
f 328/311/46 347/329/46 346/330/46
f 328/311/46 329/310/46 347/329/46
f 329/310/47 348/331/47 347/329/47
f 329/310/47 330/312/47 348/331/47
f 330/312/48 349/332/48 348/331/48
f 330/312/48 331/313/48 349/332/48
f 331/313/49 350/333/49 349/332/49
f 331/313/49 332/314/49 350/333/49
f 378/316/50 351/334/50 379/335/50
f 380/316/50 333/315/50 351/334/50
f 333/315/51 352/336/51 351/334/51
f 333/315/51 334/317/51 352/336/51
f 334/317/52 353/337/52 352/336/52
f 334/317/52 335/318/52 353/337/52
f 335/318/53 354/338/53 353/337/53
f 335/318/53 336/319/53 354/338/53
f 336/319/54 355/339/54 354/338/54
f 336/319/54 337/320/54 355/339/54
f 337/320/55 356/340/55 355/339/55
f 337/320/55 338/321/55 356/340/55
f 338/321/56 357/341/56 356/340/56
f 338/321/56 339/322/56 357/341/56
f 339/322/57 358/342/57 357/341/57
f 339/322/57 340/323/57 358/342/57
f 340/323/58 359/343/58 358/342/58
f 340/323/58 341/324/58 359/343/58
f 341/324/59 360/344/59 359/343/59
f 341/324/59 342/325/59 360/344/59
f 342/325/60 361/345/60 360/344/60
f 342/325/60 343/326/60 361/345/60
f 343/326/61 362/346/61 361/345/61
f 343/326/61 344/327/61 362/346/61
f 344/327/62 363/347/62 362/346/62
f 344/327/62 345/328/62 363/347/62
f 345/328/63 346/330/63 363/347/63
f 345/328/63 328/311/63 346/330/63
f 364/348/64 346/330/64 347/329/64
f 364/348/64 347/329/64 348/331/64
f 364/348/64 348/331/64 349/332/64
f 364/348/64 349/332/64 350/333/64
f 364/348/64 381/335/64 351/334/64
f 364/348/64 351/334/64 352/336/64
f 364/348/64 352/336/64 353/337/64
f 364/348/64 353/337/64 354/338/64
f 364/348/64 354/338/64 355/339/64
f 364/348/64 355/339/64 356/340/64
f 364/348/64 356/340/64 357/341/64
f 364/348/64 357/341/64 358/342/64
f 364/348/64 358/342/64 359/343/64
f 364/348/64 359/343/64 360/344/64
f 364/348/64 360/344/64 361/345/64
f 364/348/64 361/345/64 362/346/64
f 364/348/64 362/346/64 363/347/64
f 364/348/64 363/347/64 346/330/64
