\contentsline {section}{\numberline {1}What is Cel Shading}{3}
\contentsline {section}{\numberline {2}How to achieve Cel Shading}{3}
\contentsline {section}{\numberline {3}Our Cel Shading implementation}{3}
\contentsline {subsection}{\numberline {3.1}First pass: Silhouette}{3}
\contentsline {subsection}{\numberline {3.2}Second pass: Cel Shading}{4}
\contentsline {section}{\numberline {4}Auxiliary}{4}
