\relax 
\citation{dr}
\citation{teapot}
\citation{teapot}
\@writefile{toc}{\contentsline {section}{\numberline {1}What is Cel Shading}{3}}
\@writefile{toc}{\contentsline {section}{\numberline {2}How to achieve Cel Shading}{3}}
\@writefile{lof}{\contentsline {figure}{\numberline {1}{\ignorespaces  left: The back faces are drawn with thick lines, middle: The object is drawn with a basic texture, right: Shading \cite  {teapot}}}{3}}
\newlabel{fig3}{{1}{3}}
\@writefile{toc}{\contentsline {section}{\numberline {3}Our Cel Shading implementation}{3}}
\@writefile{toc}{\contentsline {subsection}{\numberline {3.1}First pass: Silhouette}{3}}
\bibcite{dr}{1}
\bibcite{teapot}{2}
\@writefile{toc}{\contentsline {subsection}{\numberline {3.2}Second pass: Cel Shading}{4}}
\@writefile{lof}{\contentsline {figure}{\numberline {2}{\ignorespaces  left: Outline, middle: Shading, right: Compined}}{4}}
\newlabel{fig3}{{2}{4}}
\@writefile{toc}{\contentsline {section}{\numberline {4}Auxiliary}{4}}
